{
  "pipeline": {
    "pipeline_name": "document-pipeline",
    "branches": [
      {
        "branch_name": "master",
        "branch_function": "",
        "create_folders": [""],
        "copy_files_from_folder": "scripts"
      },
      {
        "branch_name": "results",
        "branch_function": "",
        "create_folders": [""],
        "copy_files_from_folder": ""
      },
      {
        "branch_name": "sample-source",
        "branch_function": "sample-source",
        "create_folders": ["pdf","doc"],
        "copy_files_from_folder": ""
      }
    ]
  }
}
